D:\subjects\oop\FileInputOutput\src\main\java\com\unchalika\fileinputoutput\Rectangle.java
D:\subjects\oop\FileInputOutput\src\main\java\com\unchalika\fileinputoutput\TestFileOutput.java
D:\subjects\oop\FileInputOutput\src\main\java\com\unchalika\fileinputoutput\TestFileInput.java
D:\subjects\oop\FileInputOutput\src\main\java\com\unchalika\fileinputoutput\Dog.java
